…
    ## Skipping install of 'patchwork' from a github remote, the SHA1 (36b49187) has not changed since last install.
    ##   Use `force = TRUE` to force installation

``` r
library(patchwork)
data("instacart")

instacart %>% 
  group_by(aisle) %>% 
  summarize(orders = n())
```

    ## # A tibble: 134 x 2
    ##    aisle                  orders
    ##    <chr>                   <int>
    ##  1 air fresheners candles   1067
    ##  2 asian foods              7007
    ##  3 baby accessories          306
    ##  4 baby bath body care       328
    ##  5 baby food formula       13198
    ##  6 bakery desserts          1501
    ##  7 baking ingredients      13088
    ##  8 baking supplies decor    1094
    ##  9 beauty                    287
    ## 10 beers coolers            1839
    ## # … with 124 more rows
…
